{
  "kind": "collectionType",
  "collectionName": "posts",
  "info": {
    "name": "Post",
    "description": ""
  },
  "options": {
    "increments": true,
    "timestamps": true,
    "draftAndPublish": true
  },
  "pluginOptions": {},
  "attributes": {
    "title": {
      "type": "string"
    },
    "description": {
      "type": "text"
    },
    "image": {
      "model": "file",
      "via": "related",
      "allowedTypes": [
        "images"
      ],
      "plugin": "upload",
      "required": true,
      "pluginOptions": {}
    },
    "user": {
      "plugin": "users-permissions",
      "model": "user"
    }
  }
}
